%YAML 1.1
%TAG !u! tag:unity3d.com,2011:
--- !u!74 &7400000
AnimationClip:
  m_ObjectHideFlags: 0
  m_CorrespondingSourceObject: {fileID: 0}
  m_PrefabInstance: {fileID: 0}
  m_PrefabAsset: {fileID: 0}
  m_Name: side
  serializedVersion: 6
  m_Legacy: 0
  m_Compressed: 0
  m_UseHighQualityCurve: 1
  m_RotationCurves: []
  m_CompressedRotationCurves: []
  m_EulerCurves: []
  m_PositionCurves: []
  m_ScaleCurves: []
  m_FloatCurves: []
  m_PPtrCurves:
  - curve:
    - time: 0
      value: {fileID: 21300000, guid: 5bf2573ad1f692b4f9f5b20829542090, type: 3}
    - time: 0.083333336
      value: {fileID: 21300000, guid: a278fac984b527543a41ada6baca6172, type: 3}
    - time: 0.16666667
      value: {fileID: 21300000, guid: 28e56e66c255e9d41bf94a23c829ee7a, type: 3}
    - time: 0.25
      value: {fileID: 21300000, guid: e343c72add85ca9469425c6ed5315798, type: 3}
    - time: 0.33333334
      value: {fileID: 21300000, guid: 15967453343df5747aa86b5d3333e684, type: 3}
    - time: 0.41666666
      value: {fileID: 21300000, guid: c399d26c7576f974e9806054cd04e451, type: 3}
    - time: 0.5
      value: {fileID: 21300000, guid: c0e30dec8b621b744af021b89db1892d, type: 3}
    attribute: m_Sprite
    path: 
    classID: 212
    script: {fileID: 0}
  m_SampleRate: 12
  m_WrapMode: 0
  m_Bounds:
    m_Center: {x: 0, y: 0, z: 0}
    m_Extent: {x: 0, y: 0, z: 0}
  m_ClipBindingConstant:
    genericBindings:
    - serializedVersion: 2
      path: 0
      attribute: 0
      script: {fileID: 0}
      typeID: 212
      customType: 23
      isPPtrCurve: 1
    pptrCurveMapping:
    - {fileID: 21300000, guid: 5bf2573ad1f692b4f9f5b20829542090, type: 3}
    - {fileID: 21300000, guid: a278fac984b527543a41ada6baca6172, type: 3}
    - {fileID: 21300000, guid: 28e56e66c255e9d41bf94a23c829ee7a, type: 3}
    - {fileID: 21300000, guid: e343c72add85ca9469425c6ed5315798, type: 3}
    - {fileID: 21300000, guid: 15967453343df5747aa86b5d3333e684, type: 3}
    - {fileID: 21300000, guid: c399d26c7576f974e9806054cd04e451, type: 3}
    - {fileID: 21300000, guid: c0e30dec8b621b744af021b89db1892d, type: 3}
  m_AnimationClipSettings:
    serializedVersion: 2
    m_AdditiveReferencePoseClip: {fileID: 0}
    m_AdditiveReferencePoseTime: 0
    m_StartTime: 0
    m_StopTime: 0.5833333
    m_OrientationOffsetY: 0
    m_Level: 0
    m_CycleOffset: 0
    m_HasAdditiveReferencePose: 0
    m_LoopTime: 1
    m_LoopBlend: 0
    m_LoopBlendOrientation: 0
    m_LoopBlendPositionY: 0
    m_LoopBlendPositionXZ: 0
    m_KeepOriginalOrientation: 0
    m_KeepOriginalPositionY: 1
    m_KeepOriginalPositionXZ: 0
    m_HeightFromFeet: 0
    m_Mirror: 0
  m_EditorCurves: []
  m_EulerEditorCurves: []
  m_HasGenericRootTransform: 0
  m_HasMotionFloatCurves: 0
  m_Events: []
